{
 "business": [
    {
      "id": 1,
      "name": "Hugo",
      "keywords": ["Delivery","App","Logistics"],
      "address": "Pasaje Las Rosas #5266, Lomas Verdes, Col. Escalón. San Salvador.",
      "geolocation": {
          "lat": 13.70787,
          "lon": -89.25078
        },
      "phone": "+50322478100",
      "website": "https://hugoapp.com/",
      "social_networks": [
          {
            "name": "Facebook",
            "handler": "https://www.facebook.com/hugoapp.sv/"
          },
          {
            "name": "Instagram",
            "handler": "https://www.instagram.com/hugoapp.sv/"
          },
          {
            "name": "LinkedIn",
            "handler": "https://www.linkedin.com/company/hugo-technologies-s.a.-de-c.v./"
          }
        ]
    },
    {
      "id": 2,
      "name": "Seed.sv",
      "keywords": ["Coworking","Innovation","Office Center"],
      "address": "138 Pje. José Camilo Campos, 5ta Calle poniente, Colonia Escalón, San Salvador",
      "geolocation": {
          "lat": 13.70695,
          "lon": -89.25311
        },
      "phone": "+50321180677",
      "website": "https://seedsv.com/",
      "social_networks": [
          {
            "name": "Facebook",
            "handler": "https://www.facebook.com/seed.community.sv/"
          },
          {
            "name": "Instagram",
            "handler": "https://www.instagram.com/seed.sv/"
          }
        ]
    },
    {
      "id": 3,
      "name": "Elaniin",
      "keywords": ["Development","Outsourcing","Trainings"],
      "address": "101 Av Nte, Lomas Verdes, #517, Col. Escalón, San Salvador San Salvador, EL Salvador",
      "geolocation": {
          "lat": 13.70736,
          "lon": -89.25159
        },
      "phone": "+50325122274",
      "website": "https://elaniin.com/",
      "social_networks": [
          {
            "name": "Facebook",
            "handler": "https://www.facebook.com/Elaniin/"
          },
          {
            "name": "Instagram",
            "handler": "https://www.instagram.com/elaniin/"
          },
          {
            "name": "Twitter",
            "handler": "https://twitter.com/elaniin"
          }
        ]
    },
    {
      "id": 4,
      "name": "BitLab",
      "keywords": ["Training","Academy","Development"],
      "address": "9a Calle Poniente y, 99 a Avenida Norte #548, San Salvador",
      "geolocation": {
          "lat": 13.70862,
          "lon": -89.24696
        },
      "phone": "+50322004197",
      "website": "https://bitlab.edu.sv/",
      "social_networks": [
          {
            "name": "Facebook",
            "handler": "https://www.facebook.com/BitLabsv"
          },
          {
            "name": "Instagram",
            "handler": "https://www.instagram.com/bitlabsv/"
          }
        ]
    },
    {
      "id": 5,
      "name": "Vertex Studio",
      "keywords": ["Simulation","Drones","AI"],
      "address": "Colonia Escalón, Calle Francisco Gavidia, #8, El Salvador, San Salvador",
      "geolocation": {
          "lat": 13.71147,
          "lon": -89.25327
        },
      "phone": "+50325193270",
      "website": "https://vertexstudio.co/",
      "social_networks": [
          {
            "name": "Facebook",
            "handler": "https://www.facebook.com/vertexstudio.co/"
          }
        ]
    },
    {
      "id": 6,
      "name": "Kadevjo",
      "keywords": ["Developent","Outsourcing","Technology"],
      "address": "Colonia Escalón, Calle Francisco Gavidia, #8. San Salvador, El Salvador.",
      "geolocation": {
          "lat": 13.71147,
          "lon": -89.25327
        },
      "phone": "+50325126461",
      "website": "http://www.kadevjo.com/",
      "social_networks": [
          {
            "name": "Facebook",
            "handler": "https://www.facebook.com/Kadevjo/"
          },
          {
            "name": "Twitter",
            "handler": "https://twitter.com/Kadevjo"
          },
          {
            "name": "LinkedIn",
            "handler": "https://www.linkedin.com/company/kadevjo/"
          }
        ]
    },
    {
      "id": 7,
      "name": "INNBOX El Salvador",
      "keywords": ["Consulting","Innovation","Business"],
      "address": "Calle Arturo Ambrogi #442, Colonia Escalón. El Salvador.",
      "geolocation": {
          "lat": 13.70577,
          "lon": -89.25591
        },
      "phone": "+50325573374",
      "website": "http://innbox.sv/",
      "social_networks": [
          {
            "name": "Facebook",
            "handler": "https://www.facebook.com/innbox.sv/"
          }
        ]
    },
    {
      "id": 7,
      "name": "Hackerspace San Salvador",
      "keywords": ["Coworking","Laboratory","Technology"],
      "address": "Calle José Martí #7, Colonia Lomas Verdes. El Salvador.",
      "geolocation": {
          "lat": 13.70945,
          "lon": -89.25032
        },
      "phone": "+50379852061",
      "website": "https://www.hackerspace.sv/",
      "social_networks": [
          {
            "name": "Facebook",
            "handler": "https://www.facebook.com/hackerspacesv/"
          },
          {
            "name": "Instagram",
            "handler": "https://instagram.com/hackerspacesv/"
          },
          {
            "name": "Twitter",
            "handler": "https://www.twitter.com/hackerspacesv/"
          }
        ]
    }
 ]
}
